EESchema Schematic File Version 2
LIBS:power
LIBS:device
LIBS:transistors
LIBS:conn
LIBS:linear
LIBS:regul
LIBS:74xx
LIBS:cmos4000
LIBS:adc-dac
LIBS:memory
LIBS:xilinx
LIBS:microcontrollers
LIBS:dsp
LIBS:microchip
LIBS:analog_switches
LIBS:motorola
LIBS:texas
LIBS:intel
LIBS:audio
LIBS:interface
LIBS:digital-audio
LIBS:philips
LIBS:display
LIBS:cypress
LIBS:siliconi
LIBS:opto
LIBS:atmel
LIBS:contrib
LIBS:valves
LIBS:BH1750FVI-TR
LIBS:lightSensor-cache
EELAYER 25 0
EELAYER END
$Descr A4 11693 8268
encoding utf-8
Sheet 1 1
Title ""
Date ""
Rev ""
Comp ""
Comment1 ""
Comment2 ""
Comment3 ""
Comment4 ""
$EndDescr
$Comp
L BH1750FVI-TR U1
U 1 1 5C8D7803
P 2800 2300
F 0 "U1" H 2399 2610 50  0000 L BNN
F 1 "BH1750FVI-TR" H 2409 1929 50  0000 L BNN
F 2 "BH1750FVI-TR:SOTFL50P300X75-6N" H 2800 2300 50  0001 L BNN
F 3 "Unavailable" H 2800 2300 50  0001 L BNN
F 4 "BH1750FVI-TR" H 2800 2300 50  0001 L BNN "Field4"
F 5 "Rohm" H 2800 2300 50  0001 L BNN "Field5"
F 6 "SMD-6 Rohm" H 2800 2300 50  0001 L BNN "Field6"
F 7 "Light to Digital Ambient Light Sensor Digital O/P 1lux to 65535lux 6-Pin WSOF Embossed T/R" H 2800 2300 50  0001 L BNN "Field7"
F 8 "None" H 2800 2300 50  0001 L BNN "Field8"
	1    2800 2300
	1    0    0    -1  
$EndComp
$Comp
L +3.3V #PWR01
U 1 1 5C8D78E4
P 3650 1750
F 0 "#PWR01" H 3650 1600 50  0001 C CNN
F 1 "+3.3V" H 3650 1890 50  0000 C CNN
F 2 "" H 3650 1750 50  0000 C CNN
F 3 "" H 3650 1750 50  0000 C CNN
	1    3650 1750
	1    0    0    -1  
$EndComp
Wire Wire Line
	3650 1750 3650 2100
Wire Wire Line
	3650 2100 3400 2100
$Comp
L GND #PWR02
U 1 1 5C8D78FE
P 3650 2700
F 0 "#PWR02" H 3650 2450 50  0001 C CNN
F 1 "GND" H 3650 2550 50  0000 C CNN
F 2 "" H 3650 2700 50  0000 C CNN
F 3 "" H 3650 2700 50  0000 C CNN
	1    3650 2700
	1    0    0    -1  
$EndComp
Wire Wire Line
	3650 2700 3650 2500
Wire Wire Line
	3650 2500 3400 2500
$Comp
L GND #PWR03
U 1 1 5C8D7918
P 2000 1700
F 0 "#PWR03" H 2000 1450 50  0001 C CNN
F 1 "GND" H 2000 1550 50  0000 C CNN
F 2 "" H 2000 1700 50  0000 C CNN
F 3 "" H 2000 1700 50  0000 C CNN
	1    2000 1700
	-1   0    0    1   
$EndComp
Wire Wire Line
	2200 2100 2000 2100
Wire Wire Line
	2000 2100 2000 1700
$Comp
L R R1
U 1 1 5C8D7987
P 1550 1900
F 0 "R1" V 1630 1900 50  0000 C CNN
F 1 "1k" V 1550 1900 50  0000 C CNN
F 2 "Resistors_SMD:R_0603" V 1480 1900 50  0001 C CNN
F 3 "" H 1550 1900 50  0000 C CNN
	1    1550 1900
	1    0    0    -1  
$EndComp
$Comp
L C C1
U 1 1 5C8D79AC
P 1550 2500
F 0 "C1" H 1575 2600 50  0000 L CNN
F 1 "100nF" H 1575 2400 50  0000 L CNN
F 2 "Capacitors_SMD:C_0603" H 1588 2350 50  0001 C CNN
F 3 "" H 1550 2500 50  0000 C CNN
	1    1550 2500
	1    0    0    -1  
$EndComp
$Comp
L GND #PWR04
U 1 1 5C8D79CC
P 1550 2850
F 0 "#PWR04" H 1550 2600 50  0001 C CNN
F 1 "GND" H 1550 2700 50  0000 C CNN
F 2 "" H 1550 2850 50  0000 C CNN
F 3 "" H 1550 2850 50  0000 C CNN
	1    1550 2850
	1    0    0    -1  
$EndComp
Wire Wire Line
	1550 2850 1550 2650
Wire Wire Line
	1550 2050 1550 2350
Wire Wire Line
	2200 2200 1550 2200
Connection ~ 1550 2200
$Comp
L +3.3V #PWR05
U 1 1 5C8D7A05
P 1550 1550
F 0 "#PWR05" H 1550 1400 50  0001 C CNN
F 1 "+3.3V" H 1550 1690 50  0000 C CNN
F 2 "" H 1550 1550 50  0000 C CNN
F 3 "" H 1550 1550 50  0000 C CNN
	1    1550 1550
	1    0    0    -1  
$EndComp
Wire Wire Line
	1550 1550 1550 1750
$Comp
L CONN_01X04 P1
U 1 1 5C8D7A6F
P 2300 4250
F 0 "P1" H 2300 4500 50  0000 C CNN
F 1 "CONN_01X04" V 2400 4250 50  0000 C CNN
F 2 "Pin_Headers:Pin_Header_Straight_1x04" H 2300 4250 50  0001 C CNN
F 3 "" H 2300 4250 50  0000 C CNN
	1    2300 4250
	0    1    1    0   
$EndComp
$Comp
L GND #PWR06
U 1 1 5C8D81F6
P 2750 3850
F 0 "#PWR06" H 2750 3600 50  0001 C CNN
F 1 "GND" H 2750 3700 50  0000 C CNN
F 2 "" H 2750 3850 50  0000 C CNN
F 3 "" H 2750 3850 50  0000 C CNN
	1    2750 3850
	0    -1   -1   0   
$EndComp
Wire Wire Line
	2750 3850 2450 3850
Wire Wire Line
	2450 3850 2450 4050
$Comp
L +3.3V #PWR07
U 1 1 5C8D8248
P 2500 3650
F 0 "#PWR07" H 2500 3500 50  0001 C CNN
F 1 "+3.3V" H 2500 3790 50  0000 C CNN
F 2 "" H 2500 3650 50  0000 C CNN
F 3 "" H 2500 3650 50  0000 C CNN
	1    2500 3650
	0    1    1    0   
$EndComp
Wire Wire Line
	2500 3650 2350 3650
Wire Wire Line
	2350 3650 2350 4050
Wire Wire Line
	2250 4050 2250 2800
Wire Wire Line
	2250 2800 2000 2800
Wire Wire Line
	2000 2800 2000 2300
Wire Wire Line
	2000 2300 2200 2300
Wire Wire Line
	2200 2500 2100 2500
Wire Wire Line
	2100 2500 2100 3800
Wire Wire Line
	2100 3800 2150 3800
Wire Wire Line
	2150 3800 2150 4050
$EndSCHEMATC
