EESchema Schematic File Version 2
LIBS:power
LIBS:device
LIBS:transistors
LIBS:conn
LIBS:linear
LIBS:regul
LIBS:74xx
LIBS:cmos4000
LIBS:adc-dac
LIBS:memory
LIBS:xilinx
LIBS:microcontrollers
LIBS:dsp
LIBS:microchip
LIBS:analog_switches
LIBS:motorola
LIBS:texas
LIBS:intel
LIBS:audio
LIBS:interface
LIBS:digital-audio
LIBS:philips
LIBS:display
LIBS:cypress
LIBS:siliconi
LIBS:opto
LIBS:atmel
LIBS:contrib
LIBS:valves
LIBS:tinkerforge
LIBS:displaySsd1306-cache
EELAYER 25 0
EELAYER END
$Descr A4 11693 8268
encoding utf-8
Sheet 1 1
Title ""
Date ""
Rev ""
Comp ""
Comment1 ""
Comment2 ""
Comment3 ""
Comment4 ""
$EndDescr
$Comp
L OLED013 U1
U 1 1 5C8E3DB0
P 7650 3300
F 0 "U1" H 7500 4900 60  0000 C CNN
F 1 "OLED013" H 7650 1700 60  0000 C CNN
F 2 "displaySsd1306:OLED013" H 8100 5000 60  0000 C CNN
F 3 "" H 8100 5000 60  0000 C CNN
	1    7650 3300
	1    0    0    -1  
$EndComp
$Comp
L GND #PWR01
U 1 1 5C8E4D43
P 7200 1650
F 0 "#PWR01" H 7200 1400 50  0001 C CNN
F 1 "GND" H 7200 1500 50  0000 C CNN
F 2 "" H 7200 1650 50  0000 C CNN
F 3 "" H 7200 1650 50  0000 C CNN
	1    7200 1650
	-1   0    0    1   
$EndComp
$Comp
L C C2
U 1 1 5C8E4D6B
P 6500 1800
F 0 "C2" H 6525 1900 50  0000 L CNN
F 1 "1uF" H 6525 1700 50  0000 L CNN
F 2 "Capacitors_SMD:C_0603" H 6538 1650 50  0001 C CNN
F 3 "" H 6500 1800 50  0000 C CNN
	1    6500 1800
	1    0    0    -1  
$EndComp
$Comp
L C C3
U 1 1 5C8E4D9A
P 6500 2200
F 0 "C3" H 6525 2300 50  0000 L CNN
F 1 "1uF" H 6525 2100 50  0000 L CNN
F 2 "Capacitors_SMD:C_0603" H 6538 2050 50  0001 C CNN
F 3 "" H 6500 2200 50  0000 C CNN
	1    6500 2200
	1    0    0    -1  
$EndComp
$Comp
L +3.3V #PWR02
U 1 1 5C8E4E4E
P 4750 2450
F 0 "#PWR02" H 4750 2300 50  0001 C CNN
F 1 "+3.3V" H 4750 2590 50  0000 C CNN
F 2 "" H 4750 2450 50  0000 C CNN
F 3 "" H 4750 2450 50  0000 C CNN
	1    4750 2450
	0    -1   -1   0   
$EndComp
NoConn ~ 7350 2450
$Comp
L GND #PWR03
U 1 1 5C8E4EBE
P 6200 2650
F 0 "#PWR03" H 6200 2400 50  0001 C CNN
F 1 "GND" H 6200 2500 50  0000 C CNN
F 2 "" H 6200 2650 50  0000 C CNN
F 3 "" H 6200 2650 50  0000 C CNN
	1    6200 2650
	1    0    0    -1  
$EndComp
$Comp
L C C1
U 1 1 5C8E4F71
P 5900 3450
F 0 "C1" H 5925 3550 50  0000 L CNN
F 1 "10uF" H 5925 3350 50  0000 L CNN
F 2 "Capacitors_SMD:C_0603" H 5938 3300 50  0001 C CNN
F 3 "" H 5900 3450 50  0000 C CNN
	1    5900 3450
	1    0    0    -1  
$EndComp
$Comp
L R R3
U 1 1 5C8E4FC4
P 5900 2850
F 0 "R3" V 5980 2850 50  0000 C CNN
F 1 "4.7k" V 5900 2850 50  0000 C CNN
F 2 "Resistors_SMD:R_0603" V 5830 2850 50  0001 C CNN
F 3 "" H 5900 2850 50  0000 C CNN
	1    5900 2850
	1    0    0    -1  
$EndComp
$Comp
L GND #PWR04
U 1 1 5C8E5077
P 5900 3700
F 0 "#PWR04" H 5900 3450 50  0001 C CNN
F 1 "GND" H 5900 3550 50  0000 C CNN
F 2 "" H 5900 3700 50  0000 C CNN
F 3 "" H 5900 3700 50  0000 C CNN
	1    5900 3700
	1    0    0    -1  
$EndComp
$Comp
L CONN_01X04 P1
U 1 1 5C8E5487
P 4700 3900
F 0 "P1" H 4700 4150 50  0000 C CNN
F 1 "CONN_01X04" V 4800 3900 50  0000 C CNN
F 2 "Pin_Headers:Pin_Header_Straight_1x04_Pitch2.00mm" H 4700 3900 50  0001 C CNN
F 3 "" H 4700 3900 50  0000 C CNN
	1    4700 3900
	-1   0    0    1   
$EndComp
$Comp
L GND #PWR05
U 1 1 5C8E55DA
P 5000 4200
F 0 "#PWR05" H 5000 3950 50  0001 C CNN
F 1 "GND" H 5000 4050 50  0000 C CNN
F 2 "" H 5000 4200 50  0000 C CNN
F 3 "" H 5000 4200 50  0000 C CNN
	1    5000 4200
	1    0    0    -1  
$EndComp
$Comp
L +3.3V #PWR06
U 1 1 5C8E55F7
P 5300 4200
F 0 "#PWR06" H 5300 4050 50  0001 C CNN
F 1 "+3.3V" H 5300 4340 50  0000 C CNN
F 2 "" H 5300 4200 50  0000 C CNN
F 3 "" H 5300 4200 50  0000 C CNN
	1    5300 4200
	-1   0    0    1   
$EndComp
$Comp
L GND #PWR07
U 1 1 5C8E59DA
P 6600 4600
F 0 "#PWR07" H 6600 4350 50  0001 C CNN
F 1 "GND" H 6600 4450 50  0000 C CNN
F 2 "" H 6600 4600 50  0000 C CNN
F 3 "" H 6600 4600 50  0000 C CNN
	1    6600 4600
	1    0    0    -1  
$EndComp
Wire Wire Line
	7200 1650 7200 1850
Wire Wire Line
	7200 1850 7350 1850
Wire Wire Line
	6500 1650 6500 1550
Wire Wire Line
	6500 1550 7000 1550
Wire Wire Line
	7000 1550 7000 1950
Wire Wire Line
	7000 1950 7350 1950
Wire Wire Line
	6500 1950 6850 1950
Wire Wire Line
	6850 1950 6850 2050
Wire Wire Line
	6850 2050 7350 2050
Wire Wire Line
	6500 2050 6750 2050
Wire Wire Line
	6750 2050 6750 2150
Wire Wire Line
	6750 2150 7350 2150
Wire Wire Line
	6500 2350 6750 2350
Wire Wire Line
	6750 2350 6750 2250
Wire Wire Line
	6750 2250 7350 2250
Wire Wire Line
	7350 2350 6950 2350
Wire Wire Line
	6950 2350 6950 2850
Wire Wire Line
	6950 2650 7350 2650
Wire Wire Line
	4750 2450 6950 2450
Connection ~ 6950 2450
Wire Wire Line
	6200 2550 7350 2550
Wire Wire Line
	6200 2550 6200 2650
Wire Wire Line
	7350 2750 6800 2750
Wire Wire Line
	6800 2550 6800 3450
Connection ~ 6800 2550
Connection ~ 6800 2750
Wire Wire Line
	6800 2950 7350 2950
Wire Wire Line
	6800 3050 7350 3050
Connection ~ 6800 2950
Wire Wire Line
	5900 3000 5900 3300
Wire Wire Line
	7350 3150 5900 3150
Connection ~ 5900 3150
Wire Wire Line
	5900 2700 5900 2450
Connection ~ 5900 2450
Wire Wire Line
	5900 3700 5900 3600
Wire Wire Line
	6800 3250 7350 3250
Connection ~ 6800 3050
Wire Wire Line
	6800 3450 7350 3450
Connection ~ 6800 3250
Wire Wire Line
	6950 2850 7350 2850
Connection ~ 6950 2650
Wire Wire Line
	7350 3350 6800 3350
Connection ~ 6800 3350
Wire Wire Line
	4900 4050 5000 4050
Wire Wire Line
	5000 4050 5000 4200
Wire Wire Line
	5300 4200 5300 3950
Wire Wire Line
	5300 3950 4900 3950
Wire Wire Line
	4900 3850 5650 3850
Wire Wire Line
	5650 3850 5650 4050
Wire Wire Line
	5650 4050 6200 4050
Wire Wire Line
	6200 4050 6200 3550
Wire Wire Line
	6200 3550 7350 3550
Wire Wire Line
	4900 3750 5500 3750
Wire Wire Line
	5500 3750 5500 4150
Wire Wire Line
	5500 4150 6350 4150
Wire Wire Line
	6350 4150 6350 3650
Wire Wire Line
	6350 3650 7350 3650
Wire Wire Line
	7350 3750 7200 3750
Wire Wire Line
	7200 3750 7200 3650
Connection ~ 7200 3650
Wire Wire Line
	7350 3850 6600 3850
Wire Wire Line
	6600 3850 6600 4600
Wire Wire Line
	7350 3950 6600 3950
Connection ~ 6600 3950
Wire Wire Line
	7350 4050 6600 4050
Connection ~ 6600 4050
Wire Wire Line
	7350 4150 6600 4150
Connection ~ 6600 4150
Wire Wire Line
	7350 4250 6600 4250
Connection ~ 6600 4250
$Comp
L R R4
U 1 1 5C8E5BFA
P 6350 4700
F 0 "R4" V 6430 4700 50  0000 C CNN
F 1 "560k" V 6350 4700 50  0000 C CNN
F 2 "Resistors_SMD:R_0603" V 6280 4700 50  0001 C CNN
F 3 "" H 6350 4700 50  0000 C CNN
	1    6350 4700
	1    0    0    -1  
$EndComp
Wire Wire Line
	6350 4550 6350 4350
Wire Wire Line
	6350 4350 7350 4350
$Comp
L GND #PWR08
U 1 1 5C8E5C97
P 7000 5450
F 0 "#PWR08" H 7000 5200 50  0001 C CNN
F 1 "GND" H 7000 5300 50  0000 C CNN
F 2 "" H 7000 5450 50  0000 C CNN
F 3 "" H 7000 5450 50  0000 C CNN
	1    7000 5450
	1    0    0    -1  
$EndComp
Wire Wire Line
	7000 4950 7000 5450
Wire Wire Line
	7250 5350 6350 5350
Wire Wire Line
	7250 4650 7250 5350
Wire Wire Line
	7250 4650 7350 4650
Wire Wire Line
	7350 4750 7250 4750
Connection ~ 7250 4750
$Comp
L C C4
U 1 1 5C8E5E8E
P 6750 5100
F 0 "C4" H 6775 5200 50  0000 L CNN
F 1 "5.6uF" H 6775 5000 50  0000 L CNN
F 2 "Capacitors_SMD:C_0603" H 6788 4950 50  0001 C CNN
F 3 "" H 6750 5100 50  0000 C CNN
	1    6750 5100
	1    0    0    -1  
$EndComp
$Comp
L C C5
U 1 1 5C8E5ECD
P 7000 4800
F 0 "C5" H 7025 4900 50  0000 L CNN
F 1 "2.2uF" H 7025 4700 50  0000 L CNN
F 2 "Capacitors_SMD:C_0603" H 7038 4650 50  0001 C CNN
F 3 "" H 7000 4800 50  0000 C CNN
	1    7000 4800
	1    0    0    -1  
$EndComp
Wire Wire Line
	6750 5350 6750 5250
Connection ~ 7000 5350
Wire Wire Line
	7000 4650 7000 4550
Wire Wire Line
	7000 4550 7350 4550
Wire Wire Line
	7350 4450 6750 4450
Wire Wire Line
	6750 4450 6750 4950
Wire Wire Line
	6350 5350 6350 4850
Connection ~ 6750 5350
$EndSCHEMATC
