EESchema Schematic File Version 2
LIBS:power
LIBS:device
LIBS:transistors
LIBS:conn
LIBS:linear
LIBS:regul
LIBS:74xx
LIBS:cmos4000
LIBS:adc-dac
LIBS:memory
LIBS:xilinx
LIBS:microcontrollers
LIBS:dsp
LIBS:microchip
LIBS:analog_switches
LIBS:motorola
LIBS:texas
LIBS:intel
LIBS:audio
LIBS:interface
LIBS:digital-audio
LIBS:philips
LIBS:display
LIBS:cypress
LIBS:siliconi
LIBS:opto
LIBS:atmel
LIBS:contrib
LIBS:valves
LIBS:nixies
LIBS:MC34063A
LIBS:nixieboard-cache
EELAYER 25 0
EELAYER END
$Descr A4 11693 8268
encoding utf-8
Sheet 1 1
Title ""
Date ""
Rev ""
Comp ""
Comment1 ""
Comment2 ""
Comment3 ""
Comment4 ""
$EndDescr
$Comp
L IN-14 N1
U 1 1 5B58E3BE
P 5300 2550
F 0 "N1" H 5300 3250 50  0000 L BNN
F 1 "IN-14" H 5300 2550 50  0000 L BNN
F 2 "Nixies:IN-14" H 5350 1700 50  0001 C CNN
F 3 "" H 5300 2550 60  0001 C CNN
	1    5300 2550
	0    -1   -1   0   
$EndComp
$Comp
L IN-14 N2
U 1 1 5B58E466
P 7000 2550
F 0 "N2" H 7000 3250 50  0000 L BNN
F 1 "IN-14" H 7000 2550 50  0000 L BNN
F 2 "Nixies:IN-14" H 7050 1700 50  0001 C CNN
F 3 "" H 7000 2550 60  0001 C CNN
	1    7000 2550
	0    -1   -1   0   
$EndComp
$Comp
L IN-14 N3
U 1 1 5B58E4BC
P 8700 2550
F 0 "N3" H 8700 3250 50  0000 L BNN
F 1 "IN-14" H 8700 2550 50  0000 L BNN
F 2 "Nixies:IN-14" H 8750 1700 50  0001 C CNN
F 3 "" H 8700 2550 60  0001 C CNN
	1    8700 2550
	0    -1   -1   0   
$EndComp
$Comp
L IN-14 N4
U 1 1 5B58E519
P 10400 2550
F 0 "N4" H 10400 3250 50  0000 L BNN
F 1 "IN-14" H 10400 2550 50  0000 L BNN
F 2 "Nixies:IN-14" H 10450 1700 50  0001 C CNN
F 3 "" H 10400 2550 60  0001 C CNN
	1    10400 2550
	0    -1   -1   0   
$EndComp
$Comp
L ATMEGA8A-A IC1
U 1 1 5B58E5DC
P 1800 5650
F 0 "IC1" H 1050 6850 50  0000 L BNN
F 1 "ATMEGA8L" H 2300 4100 50  0000 L BNN
F 2 "Housings_QFP:TQFP-32_7x7mm_Pitch0.8mm" H 1800 5650 50  0001 C CIN
F 3 "" H 1800 5650 50  0000 C CNN
	1    1800 5650
	1    0    0    -1  
$EndComp
$Comp
L MMBT3906 Q3
U 1 1 5B58E7DF
P 5300 1000
F 0 "Q3" H 5500 1075 50  0000 L CNN
F 1 "MMBTA92" H 5500 1000 50  0000 L CNN
F 2 "TO_SOT_Packages_SMD:SOT-23" H 5500 925 50  0001 L CIN
F 3 "" H 5300 1000 50  0000 L CNN
	1    5300 1000
	1    0    0    1   
$EndComp
$Comp
L MMBT3904 Q2
U 1 1 5B5909D8
P 4800 1600
F 0 "Q2" H 5000 1675 50  0000 L CNN
F 1 "MMBTA42" H 5000 1600 50  0000 L CNN
F 2 "TO_SOT_Packages_SMD:SOT-23" H 5000 1525 50  0001 L CIN
F 3 "" H 4800 1600 50  0000 L CNN
	1    4800 1600
	1    0    0    -1  
$EndComp
$Comp
L GND #PWR01
U 1 1 5B5911A9
P 4900 1850
F 0 "#PWR01" H 4900 1600 50  0001 C CNN
F 1 "GND" H 4900 1700 50  0000 C CNN
F 2 "" H 4900 1850 50  0000 C CNN
F 3 "" H 4900 1850 50  0000 C CNN
	1    4900 1850
	1    0    0    -1  
$EndComp
$Comp
L R R2
U 1 1 5B5911DD
P 4550 1400
F 0 "R2" V 4630 1400 50  0000 C CNN
F 1 "10k" V 4550 1400 50  0000 C CNN
F 2 "Resistors_SMD:R_0603" V 4480 1400 50  0001 C CNN
F 3 "" H 4550 1400 50  0000 C CNN
	1    4550 1400
	1    0    0    -1  
$EndComp
$Comp
L R R4
U 1 1 5B5912CB
P 4900 1200
F 0 "R4" V 4980 1200 50  0000 C CNN
F 1 "1M" V 4900 1200 50  0000 C CNN
F 2 "Resistors_SMD:R_1206" V 4830 1200 50  0001 C CNN
F 3 "" H 4900 1200 50  0000 C CNN
	1    4900 1200
	1    0    0    -1  
$EndComp
$Comp
L R R3
U 1 1 5B59133C
P 4900 800
F 0 "R3" V 4980 800 50  0000 C CNN
F 1 "10k" V 4900 800 50  0000 C CNN
F 2 "Resistors_SMD:R_0603" V 4830 800 50  0001 C CNN
F 3 "" H 4900 800 50  0000 C CNN
	1    4900 800 
	1    0    0    -1  
$EndComp
$Comp
L R R5
U 1 1 5B5913A5
P 5400 1400
F 0 "R5" V 5480 1400 50  0000 C CNN
F 1 "4.7k" V 5400 1400 50  0000 C CNN
F 2 "Resistors_SMD:R_0603" V 5330 1400 50  0001 C CNN
F 3 "" H 5400 1400 50  0000 C CNN
	1    5400 1400
	1    0    0    -1  
$EndComp
Text HLabel 4150 600  0    60   Input ~ 0
+170v
$Comp
L MMBT3906 Q5
U 1 1 5B5917C6
P 7000 1000
F 0 "Q5" H 7200 1075 50  0000 L CNN
F 1 "MMBTA92" H 7200 1000 50  0000 L CNN
F 2 "TO_SOT_Packages_SMD:SOT-23" H 7200 925 50  0001 L CIN
F 3 "" H 7000 1000 50  0000 L CNN
	1    7000 1000
	1    0    0    1   
$EndComp
$Comp
L MMBT3904 Q4
U 1 1 5B5917CC
P 6500 1600
F 0 "Q4" H 6700 1675 50  0000 L CNN
F 1 "MMBTA42" H 6700 1600 50  0000 L CNN
F 2 "TO_SOT_Packages_SMD:SOT-23" H 6700 1525 50  0001 L CIN
F 3 "" H 6500 1600 50  0000 L CNN
	1    6500 1600
	1    0    0    -1  
$EndComp
$Comp
L GND #PWR02
U 1 1 5B5917D2
P 6600 1850
F 0 "#PWR02" H 6600 1600 50  0001 C CNN
F 1 "GND" H 6600 1700 50  0000 C CNN
F 2 "" H 6600 1850 50  0000 C CNN
F 3 "" H 6600 1850 50  0000 C CNN
	1    6600 1850
	1    0    0    -1  
$EndComp
$Comp
L R R6
U 1 1 5B5917D9
P 6250 1400
F 0 "R6" V 6330 1400 50  0000 C CNN
F 1 "10k" V 6250 1400 50  0000 C CNN
F 2 "Resistors_SMD:R_0603" V 6180 1400 50  0001 C CNN
F 3 "" H 6250 1400 50  0000 C CNN
	1    6250 1400
	-1   0    0    1   
$EndComp
$Comp
L R R8
U 1 1 5B5917E0
P 6600 1200
F 0 "R8" V 6680 1200 50  0000 C CNN
F 1 "1M" V 6600 1200 50  0000 C CNN
F 2 "Resistors_SMD:R_1206" V 6530 1200 50  0001 C CNN
F 3 "" H 6600 1200 50  0000 C CNN
	1    6600 1200
	1    0    0    -1  
$EndComp
$Comp
L R R7
U 1 1 5B5917E6
P 6600 800
F 0 "R7" V 6680 800 50  0000 C CNN
F 1 "10k" V 6600 800 50  0000 C CNN
F 2 "Resistors_SMD:R_0603" V 6530 800 50  0001 C CNN
F 3 "" H 6600 800 50  0000 C CNN
	1    6600 800 
	1    0    0    -1  
$EndComp
$Comp
L R R9
U 1 1 5B5917EC
P 7100 1400
F 0 "R9" V 7180 1400 50  0000 C CNN
F 1 "4.7k" V 7100 1400 50  0000 C CNN
F 2 "Resistors_SMD:R_0603" V 7030 1400 50  0001 C CNN
F 3 "" H 7100 1400 50  0000 C CNN
	1    7100 1400
	1    0    0    -1  
$EndComp
$Comp
L MMBT3906 Q7
U 1 1 5B591A66
P 8700 1000
F 0 "Q7" H 8900 1075 50  0000 L CNN
F 1 "MMBTA92" H 8900 1000 50  0000 L CNN
F 2 "TO_SOT_Packages_SMD:SOT-23" H 8900 925 50  0001 L CIN
F 3 "" H 8700 1000 50  0000 L CNN
	1    8700 1000
	1    0    0    1   
$EndComp
$Comp
L MMBT3904 Q6
U 1 1 5B591A6C
P 8200 1600
F 0 "Q6" H 8400 1675 50  0000 L CNN
F 1 "MMBTA42" H 8400 1600 50  0000 L CNN
F 2 "TO_SOT_Packages_SMD:SOT-23" H 8400 1525 50  0001 L CIN
F 3 "" H 8200 1600 50  0000 L CNN
	1    8200 1600
	1    0    0    -1  
$EndComp
$Comp
L GND #PWR03
U 1 1 5B591A72
P 8300 1850
F 0 "#PWR03" H 8300 1600 50  0001 C CNN
F 1 "GND" H 8300 1700 50  0000 C CNN
F 2 "" H 8300 1850 50  0000 C CNN
F 3 "" H 8300 1850 50  0000 C CNN
	1    8300 1850
	1    0    0    -1  
$EndComp
$Comp
L R R10
U 1 1 5B591A79
P 7950 1400
F 0 "R10" V 8030 1400 50  0000 C CNN
F 1 "10k" V 7950 1400 50  0000 C CNN
F 2 "Resistors_SMD:R_0603" V 7880 1400 50  0001 C CNN
F 3 "" H 7950 1400 50  0000 C CNN
	1    7950 1400
	-1   0    0    1   
$EndComp
$Comp
L R R12
U 1 1 5B591A80
P 8300 1200
F 0 "R12" V 8380 1200 50  0000 C CNN
F 1 "1M" V 8300 1200 50  0000 C CNN
F 2 "Resistors_SMD:R_1206" V 8230 1200 50  0001 C CNN
F 3 "" H 8300 1200 50  0000 C CNN
	1    8300 1200
	1    0    0    -1  
$EndComp
$Comp
L R R11
U 1 1 5B591A86
P 8300 800
F 0 "R11" V 8380 800 50  0000 C CNN
F 1 "10k" V 8300 800 50  0000 C CNN
F 2 "Resistors_SMD:R_0603" V 8230 800 50  0001 C CNN
F 3 "" H 8300 800 50  0000 C CNN
	1    8300 800 
	1    0    0    -1  
$EndComp
$Comp
L R R13
U 1 1 5B591A8C
P 8800 1400
F 0 "R13" V 8880 1400 50  0000 C CNN
F 1 "4.7k" V 8800 1400 50  0000 C CNN
F 2 "Resistors_SMD:R_0603" V 8730 1400 50  0001 C CNN
F 3 "" H 8800 1400 50  0000 C CNN
	1    8800 1400
	1    0    0    -1  
$EndComp
$Comp
L MMBT3906 Q9
U 1 1 5B591BFE
P 10400 1000
F 0 "Q9" H 10600 1075 50  0000 L CNN
F 1 "MMBTA92" H 10600 1000 50  0000 L CNN
F 2 "TO_SOT_Packages_SMD:SOT-23" H 10600 925 50  0001 L CIN
F 3 "" H 10400 1000 50  0000 L CNN
	1    10400 1000
	1    0    0    1   
$EndComp
$Comp
L MMBT3904 Q8
U 1 1 5B591C04
P 9900 1600
F 0 "Q8" H 10100 1675 50  0000 L CNN
F 1 "MMBTA42" H 10100 1600 50  0000 L CNN
F 2 "TO_SOT_Packages_SMD:SOT-23" H 10100 1525 50  0001 L CIN
F 3 "" H 9900 1600 50  0000 L CNN
	1    9900 1600
	1    0    0    -1  
$EndComp
$Comp
L GND #PWR04
U 1 1 5B591C0A
P 10000 1850
F 0 "#PWR04" H 10000 1600 50  0001 C CNN
F 1 "GND" H 10000 1700 50  0000 C CNN
F 2 "" H 10000 1850 50  0000 C CNN
F 3 "" H 10000 1850 50  0000 C CNN
	1    10000 1850
	1    0    0    -1  
$EndComp
$Comp
L R R14
U 1 1 5B591C11
P 9650 1400
F 0 "R14" V 9730 1400 50  0000 C CNN
F 1 "10k" V 9650 1400 50  0000 C CNN
F 2 "Resistors_SMD:R_0603" V 9580 1400 50  0001 C CNN
F 3 "" H 9650 1400 50  0000 C CNN
	1    9650 1400
	-1   0    0    1   
$EndComp
$Comp
L R R16
U 1 1 5B591C18
P 10000 1200
F 0 "R16" V 10080 1200 50  0000 C CNN
F 1 "1M" V 10000 1200 50  0000 C CNN
F 2 "Resistors_SMD:R_1206" V 9930 1200 50  0001 C CNN
F 3 "" H 10000 1200 50  0000 C CNN
	1    10000 1200
	1    0    0    -1  
$EndComp
$Comp
L R R15
U 1 1 5B591C1E
P 10000 800
F 0 "R15" V 10080 800 50  0000 C CNN
F 1 "10k" V 10000 800 50  0000 C CNN
F 2 "Resistors_SMD:R_0603" V 9930 800 50  0001 C CNN
F 3 "" H 10000 800 50  0000 C CNN
	1    10000 800 
	1    0    0    -1  
$EndComp
$Comp
L R R17
U 1 1 5B591C24
P 10500 1400
F 0 "R17" V 10580 1400 50  0000 C CNN
F 1 "4.7k" V 10500 1400 50  0000 C CNN
F 2 "Resistors_SMD:R_0603" V 10430 1400 50  0001 C CNN
F 3 "" H 10500 1400 50  0000 C CNN
	1    10500 1400
	1    0    0    -1  
$EndComp
Text HLabel 4550 1200 1    60   Input ~ 0
Anode1
Text HLabel 6250 1200 1    60   Input ~ 0
Anode2
Text HLabel 7950 1200 1    60   Input ~ 0
Anode3
Text HLabel 9650 1200 1    60   Input ~ 0
Anode4
Text HLabel 4900 2900 3    60   Input ~ 0
Cathode0
Text HLabel 5000 2900 3    60   Input ~ 0
Cathode1
Text HLabel 5100 2900 3    60   Input ~ 0
Cathode2
Text HLabel 5200 2900 3    60   Input ~ 0
Cathode3
Text HLabel 5300 2900 3    60   Input ~ 0
Cathode4
Text HLabel 5400 2900 3    60   Input ~ 0
Cathode5
Text HLabel 5500 2900 3    60   Input ~ 0
Cathode6
Text HLabel 5600 2900 3    60   Input ~ 0
Cathode7
Text HLabel 5700 2900 3    60   Input ~ 0
Cathode8
Text HLabel 5800 2900 3    60   Input ~ 0
Cathode9
Text HLabel 6600 2900 3    60   Input ~ 0
Cathode0
Text HLabel 6700 2900 3    60   Input ~ 0
Cathode1
Text HLabel 6800 2900 3    60   Input ~ 0
Cathode2
Text HLabel 6900 2900 3    60   Input ~ 0
Cathode3
Text HLabel 7000 2900 3    60   Input ~ 0
Cathode4
Text HLabel 7100 2900 3    60   Input ~ 0
Cathode5
Text HLabel 7200 2900 3    60   Input ~ 0
Cathode6
Text HLabel 7300 2900 3    60   Input ~ 0
Cathode7
Text HLabel 7400 2900 3    60   Input ~ 0
Cathode8
Text HLabel 7500 2900 3    60   Input ~ 0
Cathode9
Text HLabel 8300 2900 3    60   Input ~ 0
Cathode0
Text HLabel 8400 2900 3    60   Input ~ 0
Cathode1
Text HLabel 8500 2900 3    60   Input ~ 0
Cathode2
Text HLabel 8600 2900 3    60   Input ~ 0
Cathode3
Text HLabel 8700 2900 3    60   Input ~ 0
Cathode4
Text HLabel 8800 2900 3    60   Input ~ 0
Cathode5
Text HLabel 8900 2900 3    60   Input ~ 0
Cathode6
Text HLabel 9000 2900 3    60   Input ~ 0
Cathode7
Text HLabel 9100 2900 3    60   Input ~ 0
Cathode8
Text HLabel 9200 2900 3    60   Input ~ 0
Cathode9
Text HLabel 10000 2900 3    60   Input ~ 0
Cathode0
Text HLabel 10100 2900 3    60   Input ~ 0
Cathode1
Text HLabel 10200 2900 3    60   Input ~ 0
Cathode2
Text HLabel 10300 2900 3    60   Input ~ 0
Cathode3
Text HLabel 10400 2900 3    60   Input ~ 0
Cathode4
Text HLabel 10500 2900 3    60   Input ~ 0
Cathode5
Text HLabel 10600 2900 3    60   Input ~ 0
Cathode6
Text HLabel 10700 2900 3    60   Input ~ 0
Cathode7
Text HLabel 10800 2900 3    60   Input ~ 0
Cathode8
Text HLabel 10900 2900 3    60   Input ~ 0
Cathode9
$Comp
L MMBT3904 Q17
U 1 1 5B59680C
P 10700 4800
F 0 "Q17" H 10900 4875 50  0000 L CNN
F 1 "MMBTA42" H 10900 4800 50  0000 L CNN
F 2 "TO_SOT_Packages_SMD:SOT-23" H 10900 4725 50  0001 L CIN
F 3 "" H 10700 4800 50  0000 L CNN
	1    10700 4800
	1    0    0    -1  
$EndComp
$Comp
L R R25
U 1 1 5B596812
P 10450 4600
F 0 "R25" V 10530 4600 50  0000 C CNN
F 1 "10k" V 10450 4600 50  0000 C CNN
F 2 "Resistors_SMD:R_0603" V 10380 4600 50  0001 C CNN
F 3 "" H 10450 4600 50  0000 C CNN
	1    10450 4600
	1    0    0    -1  
$EndComp
$Comp
L GND #PWR05
U 1 1 5B596819
P 10800 5050
F 0 "#PWR05" H 10800 4800 50  0001 C CNN
F 1 "GND" H 10800 4900 50  0000 C CNN
F 2 "" H 10800 5050 50  0000 C CNN
F 3 "" H 10800 5050 50  0000 C CNN
	1    10800 5050
	1    0    0    -1  
$EndComp
$Comp
L MMBT3904 Q18
U 1 1 5B597058
P 10700 6050
F 0 "Q18" H 10900 6125 50  0000 L CNN
F 1 "MMBTA42" H 10900 6050 50  0000 L CNN
F 2 "TO_SOT_Packages_SMD:SOT-23" H 10900 5975 50  0001 L CIN
F 3 "" H 10700 6050 50  0000 L CNN
	1    10700 6050
	1    0    0    -1  
$EndComp
$Comp
L R R26
U 1 1 5B59705E
P 10450 5850
F 0 "R26" V 10530 5850 50  0000 C CNN
F 1 "10k" V 10450 5850 50  0000 C CNN
F 2 "Resistors_SMD:R_0603" V 10380 5850 50  0001 C CNN
F 3 "" H 10450 5850 50  0000 C CNN
	1    10450 5850
	-1   0    0    1   
$EndComp
$Comp
L GND #PWR06
U 1 1 5B597065
P 10800 6300
F 0 "#PWR06" H 10800 6050 50  0001 C CNN
F 1 "GND" H 10800 6150 50  0000 C CNN
F 2 "" H 10800 6300 50  0000 C CNN
F 3 "" H 10800 6300 50  0000 C CNN
	1    10800 6300
	1    0    0    -1  
$EndComp
Text HLabel 10800 4550 1    60   Input ~ 0
Cathode4
Text HLabel 10800 5800 1    60   Input ~ 0
Cathode9
Text HLabel 10450 4400 1    60   Input ~ 0
cat4
Text HLabel 10450 5650 1    60   Input ~ 0
cat9
$Comp
L CONN_01X05 P2
U 1 1 5B599B93
P 4200 6700
F 0 "P2" H 4200 6950 50  0000 C CNN
F 1 "CONN_01X05" V 4300 6700 50  0000 C CNN
F 2 "Socket_Strips:Socket_Strip_Straight_1x05" H 4200 6700 50  0001 C CNN
F 3 "" H 4200 6700 50  0000 C CNN
	1    4200 6700
	1    0    0    -1  
$EndComp
$Comp
L GND #PWR07
U 1 1 5B59A42D
P 3750 6950
F 0 "#PWR07" H 3750 6700 50  0001 C CNN
F 1 "GND" H 3750 6800 50  0000 C CNN
F 2 "" H 3750 6950 50  0000 C CNN
F 3 "" H 3750 6950 50  0000 C CNN
	1    3750 6950
	1    0    0    -1  
$EndComp
Text HLabel 3850 6600 0    60   Input ~ 0
sda
Text HLabel 3850 6700 0    60   Input ~ 0
scl
Text HLabel 3800 5750 2    60   Input ~ 0
sda
Text HLabel 3800 5850 2    60   Input ~ 0
scl
$Comp
L GND #PWR08
U 1 1 5B59B68E
P 1750 7450
F 0 "#PWR08" H 1750 7200 50  0001 C CNN
F 1 "GND" H 1750 7300 50  0000 C CNN
F 2 "" H 1750 7450 50  0000 C CNN
F 3 "" H 1750 7450 50  0000 C CNN
	1    1750 7450
	1    0    0    -1  
$EndComp
$Comp
L GND #PWR09
U 1 1 5B59C84C
P 850 5050
F 0 "#PWR09" H 850 4800 50  0001 C CNN
F 1 "GND" H 850 4900 50  0000 C CNN
F 2 "" H 850 5050 50  0000 C CNN
F 3 "" H 850 5050 50  0000 C CNN
	1    850  5050
	1    0    0    -1  
$EndComp
$Comp
L CONN_01X06 P1
U 1 1 5B59E032
P 3900 5000
F 0 "P1" H 3900 5350 50  0000 C CNN
F 1 "CONN_01X06" V 4000 5000 50  0000 C CNN
F 2 "Pin_Headers:Pin_Header_Straight_1x06" H 3900 5000 50  0001 C CNN
F 3 "" H 3900 5000 50  0000 C CNN
	1    3900 5000
	1    0    0    -1  
$EndComp
Text Notes 4150 5350 1    60   ~ 0
to programmator
Text HLabel 2900 5650 2    60   Input ~ 0
Anode4
Text HLabel 2900 5550 2    60   Input ~ 0
Anode3
$Comp
L GND #PWR010
U 1 1 5B59E221
P 3650 5250
F 0 "#PWR010" H 3650 5000 50  0001 C CNN
F 1 "GND" H 3650 5100 50  0000 C CNN
F 2 "" H 3650 5250 50  0000 C CNN
F 3 "" H 3650 5250 50  0000 C CNN
	1    3650 5250
	0    1    1    0   
$EndComp
Text HLabel 2900 5350 2    60   Input ~ 0
Anode1
Text HLabel 2900 5450 2    60   Input ~ 0
Anode2
Text HLabel 2900 6250 2    60   Input ~ 0
cat0
Text HLabel 2900 6350 2    60   Input ~ 0
cat1
Text HLabel 2900 6450 2    60   Input ~ 0
cat2
Text HLabel 2900 6550 2    60   Input ~ 0
cat3
Text HLabel 2900 6650 2    60   Input ~ 0
cat4
Text HLabel 2900 6750 2    60   Input ~ 0
cat5
Text HLabel 2900 6850 2    60   Input ~ 0
cat6
Text HLabel 2900 6950 2    60   Input ~ 0
cat7
Text HLabel 2900 4650 2    60   Input ~ 0
cat8
Text HLabel 2900 4750 2    60   Input ~ 0
cat9
NoConn ~ 2800 5950
NoConn ~ 2800 6050
NoConn ~ 2800 4850
NoConn ~ 900  4950
$Comp
L R R27
U 1 1 5B5AE884
P 1650 4100
F 0 "R27" V 1730 4100 50  0000 C CNN
F 1 "10k" V 1650 4100 50  0000 C CNN
F 2 "Resistors_SMD:R_0603" V 1580 4100 50  0001 C CNN
F 3 "" H 1650 4100 50  0000 C CNN
	1    1650 4100
	1    0    0    -1  
$EndComp
$Comp
L MMBT3904 Q15
U 1 1 5B5B115F
P 9800 4800
F 0 "Q15" H 10000 4875 50  0000 L CNN
F 1 "MMBTA42" H 10000 4800 50  0000 L CNN
F 2 "TO_SOT_Packages_SMD:SOT-23" H 10000 4725 50  0001 L CIN
F 3 "" H 9800 4800 50  0000 L CNN
	1    9800 4800
	1    0    0    -1  
$EndComp
$Comp
L R R23
U 1 1 5B5B1165
P 9550 4600
F 0 "R23" V 9630 4600 50  0000 C CNN
F 1 "10k" V 9550 4600 50  0000 C CNN
F 2 "Resistors_SMD:R_0603" V 9480 4600 50  0001 C CNN
F 3 "" H 9550 4600 50  0000 C CNN
	1    9550 4600
	1    0    0    -1  
$EndComp
$Comp
L GND #PWR011
U 1 1 5B5B116C
P 9900 5050
F 0 "#PWR011" H 9900 4800 50  0001 C CNN
F 1 "GND" H 9900 4900 50  0000 C CNN
F 2 "" H 9900 5050 50  0000 C CNN
F 3 "" H 9900 5050 50  0000 C CNN
	1    9900 5050
	1    0    0    -1  
$EndComp
$Comp
L MMBT3904 Q16
U 1 1 5B5B1173
P 9800 6050
F 0 "Q16" H 10000 6125 50  0000 L CNN
F 1 "MMBTA42" H 10000 6050 50  0000 L CNN
F 2 "TO_SOT_Packages_SMD:SOT-23" H 10000 5975 50  0001 L CIN
F 3 "" H 9800 6050 50  0000 L CNN
	1    9800 6050
	1    0    0    -1  
$EndComp
$Comp
L R R24
U 1 1 5B5B1179
P 9550 5850
F 0 "R24" V 9630 5850 50  0000 C CNN
F 1 "10k" V 9550 5850 50  0000 C CNN
F 2 "Resistors_SMD:R_0603" V 9480 5850 50  0001 C CNN
F 3 "" H 9550 5850 50  0000 C CNN
	1    9550 5850
	-1   0    0    1   
$EndComp
$Comp
L GND #PWR012
U 1 1 5B5B1180
P 9900 6300
F 0 "#PWR012" H 9900 6050 50  0001 C CNN
F 1 "GND" H 9900 6150 50  0000 C CNN
F 2 "" H 9900 6300 50  0000 C CNN
F 3 "" H 9900 6300 50  0000 C CNN
	1    9900 6300
	1    0    0    -1  
$EndComp
Text HLabel 9900 4550 1    60   Input ~ 0
Cathode3
Text HLabel 9900 5800 1    60   Input ~ 0
Cathode8
Text HLabel 9550 4400 1    60   Input ~ 0
cat3
Text HLabel 9550 5650 1    60   Input ~ 0
cat8
$Comp
L MMBT3904 Q13
U 1 1 5B5B13E1
P 8900 4800
F 0 "Q13" H 9100 4875 50  0000 L CNN
F 1 "MMBTA42" H 9100 4800 50  0000 L CNN
F 2 "TO_SOT_Packages_SMD:SOT-23" H 9100 4725 50  0001 L CIN
F 3 "" H 8900 4800 50  0000 L CNN
	1    8900 4800
	1    0    0    -1  
$EndComp
$Comp
L R R21
U 1 1 5B5B13E7
P 8650 4600
F 0 "R21" V 8730 4600 50  0000 C CNN
F 1 "10k" V 8650 4600 50  0000 C CNN
F 2 "Resistors_SMD:R_0603" V 8580 4600 50  0001 C CNN
F 3 "" H 8650 4600 50  0000 C CNN
	1    8650 4600
	1    0    0    -1  
$EndComp
$Comp
L GND #PWR013
U 1 1 5B5B13EE
P 9000 5050
F 0 "#PWR013" H 9000 4800 50  0001 C CNN
F 1 "GND" H 9000 4900 50  0000 C CNN
F 2 "" H 9000 5050 50  0000 C CNN
F 3 "" H 9000 5050 50  0000 C CNN
	1    9000 5050
	1    0    0    -1  
$EndComp
$Comp
L MMBT3904 Q14
U 1 1 5B5B13F5
P 8900 6050
F 0 "Q14" H 9100 6125 50  0000 L CNN
F 1 "MMBTA42" H 9100 6050 50  0000 L CNN
F 2 "TO_SOT_Packages_SMD:SOT-23" H 9100 5975 50  0001 L CIN
F 3 "" H 8900 6050 50  0000 L CNN
	1    8900 6050
	1    0    0    -1  
$EndComp
$Comp
L R R22
U 1 1 5B5B13FB
P 8650 5850
F 0 "R22" V 8730 5850 50  0000 C CNN
F 1 "10k" V 8650 5850 50  0000 C CNN
F 2 "Resistors_SMD:R_0603" V 8580 5850 50  0001 C CNN
F 3 "" H 8650 5850 50  0000 C CNN
	1    8650 5850
	-1   0    0    1   
$EndComp
$Comp
L GND #PWR014
U 1 1 5B5B1402
P 9000 6300
F 0 "#PWR014" H 9000 6050 50  0001 C CNN
F 1 "GND" H 9000 6150 50  0000 C CNN
F 2 "" H 9000 6300 50  0000 C CNN
F 3 "" H 9000 6300 50  0000 C CNN
	1    9000 6300
	1    0    0    -1  
$EndComp
Text HLabel 9000 4550 1    60   Input ~ 0
Cathode2
Text HLabel 9000 5800 1    60   Input ~ 0
Cathode7
Text HLabel 8650 4400 1    60   Input ~ 0
cat2
Text HLabel 8650 5650 1    60   Input ~ 0
cat7
$Comp
L MMBT3904 Q11
U 1 1 5B5B1743
P 8050 4800
F 0 "Q11" H 8250 4875 50  0000 L CNN
F 1 "MMBTA42" H 8250 4800 50  0000 L CNN
F 2 "TO_SOT_Packages_SMD:SOT-23" H 8250 4725 50  0001 L CIN
F 3 "" H 8050 4800 50  0000 L CNN
	1    8050 4800
	1    0    0    -1  
$EndComp
$Comp
L R R19
U 1 1 5B5B1749
P 7800 4600
F 0 "R19" V 7880 4600 50  0000 C CNN
F 1 "10k" V 7800 4600 50  0000 C CNN
F 2 "Resistors_SMD:R_0603" V 7730 4600 50  0001 C CNN
F 3 "" H 7800 4600 50  0000 C CNN
	1    7800 4600
	1    0    0    -1  
$EndComp
$Comp
L GND #PWR015
U 1 1 5B5B1750
P 8150 5050
F 0 "#PWR015" H 8150 4800 50  0001 C CNN
F 1 "GND" H 8150 4900 50  0000 C CNN
F 2 "" H 8150 5050 50  0000 C CNN
F 3 "" H 8150 5050 50  0000 C CNN
	1    8150 5050
	1    0    0    -1  
$EndComp
$Comp
L MMBT3904 Q12
U 1 1 5B5B1757
P 8050 6050
F 0 "Q12" H 8250 6125 50  0000 L CNN
F 1 "MMBTA42" H 8250 6050 50  0000 L CNN
F 2 "TO_SOT_Packages_SMD:SOT-23" H 8250 5975 50  0001 L CIN
F 3 "" H 8050 6050 50  0000 L CNN
	1    8050 6050
	1    0    0    -1  
$EndComp
$Comp
L R R20
U 1 1 5B5B175D
P 7800 5850
F 0 "R20" V 7880 5850 50  0000 C CNN
F 1 "10k" V 7800 5850 50  0000 C CNN
F 2 "Resistors_SMD:R_0603" V 7730 5850 50  0001 C CNN
F 3 "" H 7800 5850 50  0000 C CNN
	1    7800 5850
	-1   0    0    1   
$EndComp
$Comp
L GND #PWR016
U 1 1 5B5B1764
P 8150 6300
F 0 "#PWR016" H 8150 6050 50  0001 C CNN
F 1 "GND" H 8150 6150 50  0000 C CNN
F 2 "" H 8150 6300 50  0000 C CNN
F 3 "" H 8150 6300 50  0000 C CNN
	1    8150 6300
	1    0    0    -1  
$EndComp
Text HLabel 8150 4550 1    60   Input ~ 0
Cathode1
Text HLabel 8150 5800 1    60   Input ~ 0
Cathode6
Text HLabel 7800 4400 1    60   Input ~ 0
cat1
Text HLabel 7800 5650 1    60   Input ~ 0
cat6
$Comp
L MMBT3904 Q1
U 1 1 5B5B1775
P 7150 4800
F 0 "Q1" H 7350 4875 50  0000 L CNN
F 1 "MMBTA42" H 7350 4800 50  0000 L CNN
F 2 "TO_SOT_Packages_SMD:SOT-23" H 7350 4725 50  0001 L CIN
F 3 "" H 7150 4800 50  0000 L CNN
	1    7150 4800
	1    0    0    -1  
$EndComp
$Comp
L R R1
U 1 1 5B5B177B
P 6900 4600
F 0 "R1" V 6980 4600 50  0000 C CNN
F 1 "10k" V 6900 4600 50  0000 C CNN
F 2 "Resistors_SMD:R_0603" V 6830 4600 50  0001 C CNN
F 3 "" H 6900 4600 50  0000 C CNN
	1    6900 4600
	1    0    0    -1  
$EndComp
$Comp
L GND #PWR017
U 1 1 5B5B1782
P 7250 5050
F 0 "#PWR017" H 7250 4800 50  0001 C CNN
F 1 "GND" H 7250 4900 50  0000 C CNN
F 2 "" H 7250 5050 50  0000 C CNN
F 3 "" H 7250 5050 50  0000 C CNN
	1    7250 5050
	1    0    0    -1  
$EndComp
$Comp
L MMBT3904 Q10
U 1 1 5B5B1789
P 7150 6050
F 0 "Q10" H 7350 6125 50  0000 L CNN
F 1 "MMBTA42" H 7350 6050 50  0000 L CNN
F 2 "TO_SOT_Packages_SMD:SOT-23" H 7350 5975 50  0001 L CIN
F 3 "" H 7150 6050 50  0000 L CNN
	1    7150 6050
	1    0    0    -1  
$EndComp
$Comp
L R R18
U 1 1 5B5B178F
P 6900 5850
F 0 "R18" V 6980 5850 50  0000 C CNN
F 1 "10k" V 6900 5850 50  0000 C CNN
F 2 "Resistors_SMD:R_0603" V 6830 5850 50  0001 C CNN
F 3 "" H 6900 5850 50  0000 C CNN
	1    6900 5850
	-1   0    0    1   
$EndComp
$Comp
L GND #PWR018
U 1 1 5B5B1796
P 7250 6300
F 0 "#PWR018" H 7250 6050 50  0001 C CNN
F 1 "GND" H 7250 6150 50  0000 C CNN
F 2 "" H 7250 6300 50  0000 C CNN
F 3 "" H 7250 6300 50  0000 C CNN
	1    7250 6300
	1    0    0    -1  
$EndComp
Text HLabel 7250 4550 1    60   Input ~ 0
Cathode0
Text HLabel 7250 5800 1    60   Input ~ 0
Cathode5
Text HLabel 6900 4400 1    60   Input ~ 0
cat0
Text HLabel 6900 5650 1    60   Input ~ 0
cat5
Text HLabel 3900 7050 3    60   Input ~ 0
+170v
Text Notes 4450 6950 1    60   ~ 0
to mainboard
$Comp
L C C2
U 1 1 5BFC7038
P 2450 4000
F 0 "C2" H 2475 4100 50  0000 L CNN
F 1 "0.1uF" H 2475 3900 50  0000 L CNN
F 2 "Capacitors_SMD:C_0603" H 2488 3850 50  0001 C CNN
F 3 "" H 2450 4000 50  0000 C CNN
	1    2450 4000
	0    1    1    0   
$EndComp
$Comp
L GND #PWR019
U 1 1 5BFC742C
P 2850 4100
F 0 "#PWR019" H 2850 3850 50  0001 C CNN
F 1 "GND" H 2850 3950 50  0000 C CNN
F 2 "" H 2850 4100 50  0000 C CNN
F 3 "" H 2850 4100 50  0000 C CNN
	1    2850 4100
	1    0    0    -1  
$EndComp
Wire Wire Line
	4900 1800 4900 1850
Wire Wire Line
	4900 1400 4900 1350
Wire Wire Line
	4900 950  4900 1050
Wire Wire Line
	4900 1000 5100 1000
Connection ~ 4900 1000
Wire Wire Line
	5400 600  5400 800 
Wire Wire Line
	4150 600  10500 600 
Wire Wire Line
	4900 650  4900 600 
Connection ~ 4900 600 
Wire Wire Line
	5400 1200 5400 1250
Wire Wire Line
	6600 1800 6600 1850
Wire Wire Line
	6600 1400 6600 1350
Wire Wire Line
	6600 950  6600 1050
Wire Wire Line
	6600 1000 6800 1000
Connection ~ 6600 1000
Wire Wire Line
	7100 600  7100 800 
Wire Wire Line
	6600 650  6600 600 
Connection ~ 6600 600 
Wire Wire Line
	7100 1200 7100 1250
Wire Wire Line
	8300 1800 8300 1850
Wire Wire Line
	7950 1600 8000 1600
Wire Wire Line
	8300 1400 8300 1350
Wire Wire Line
	8300 950  8300 1050
Wire Wire Line
	8300 1000 8500 1000
Connection ~ 8300 1000
Wire Wire Line
	8800 600  8800 800 
Wire Wire Line
	8300 650  8300 600 
Connection ~ 8300 600 
Wire Wire Line
	8800 1200 8800 1250
Wire Wire Line
	10000 1800 10000 1850
Wire Wire Line
	9650 1600 9700 1600
Wire Wire Line
	10000 1400 10000 1350
Wire Wire Line
	10000 950  10000 1050
Connection ~ 10000 1000
Wire Wire Line
	10500 600  10500 800 
Wire Wire Line
	10000 650  10000 600 
Connection ~ 10000 600 
Wire Wire Line
	10500 1200 10500 1250
Connection ~ 8800 600 
Connection ~ 5400 600 
Connection ~ 7100 600 
Wire Wire Line
	5400 1550 5400 2150
Wire Wire Line
	8800 1550 8800 2150
Wire Wire Line
	7100 1550 7100 2150
Wire Wire Line
	10200 1000 10000 1000
Wire Wire Line
	10500 1550 10500 2150
Wire Wire Line
	4900 2900 4900 2850
Wire Wire Line
	5000 2850 5000 2900
Wire Wire Line
	5100 2900 5100 2850
Wire Wire Line
	5200 2850 5200 2900
Wire Wire Line
	5300 2900 5300 2850
Wire Wire Line
	5400 2850 5400 2900
Wire Wire Line
	5500 2900 5500 2850
Wire Wire Line
	5600 2850 5600 2900
Wire Wire Line
	5700 2900 5700 2850
Wire Wire Line
	5800 2850 5800 2900
Wire Wire Line
	6600 2900 6600 2850
Wire Wire Line
	6700 2850 6700 2900
Wire Wire Line
	6800 2900 6800 2850
Wire Wire Line
	6900 2850 6900 2900
Wire Wire Line
	7000 2900 7000 2850
Wire Wire Line
	7100 2850 7100 2900
Wire Wire Line
	7200 2900 7200 2850
Wire Wire Line
	7300 2850 7300 2900
Wire Wire Line
	7400 2900 7400 2850
Wire Wire Line
	7500 2850 7500 2900
Wire Wire Line
	8300 2900 8300 2850
Wire Wire Line
	8400 2850 8400 2900
Wire Wire Line
	8500 2900 8500 2850
Wire Wire Line
	8600 2850 8600 2900
Wire Wire Line
	8700 2900 8700 2850
Wire Wire Line
	8800 2850 8800 2900
Wire Wire Line
	8900 2900 8900 2850
Wire Wire Line
	9000 2850 9000 2900
Wire Wire Line
	9100 2900 9100 2850
Wire Wire Line
	9200 2850 9200 2900
Wire Wire Line
	10000 2900 10000 2850
Wire Wire Line
	10100 2850 10100 2900
Wire Wire Line
	10200 2900 10200 2850
Wire Wire Line
	10300 2850 10300 2900
Wire Wire Line
	10400 2900 10400 2850
Wire Wire Line
	10500 2850 10500 2900
Wire Wire Line
	10600 2900 10600 2850
Wire Wire Line
	10700 2850 10700 2900
Wire Wire Line
	10800 2900 10800 2850
Wire Wire Line
	10900 2850 10900 2900
Wire Wire Line
	10450 4800 10500 4800
Wire Wire Line
	10800 5050 10800 5000
Wire Wire Line
	10450 6050 10500 6050
Wire Wire Line
	10800 6300 10800 6250
Wire Wire Line
	10800 4550 10800 4600
Wire Wire Line
	10800 5800 10800 5850
Wire Wire Line
	3750 6950 3750 6800
Wire Wire Line
	3750 6800 4000 6800
Wire Wire Line
	3800 6400 4000 6400
Wire Wire Line
	4000 6400 4000 6500
Wire Wire Line
	3850 6600 4000 6600
Wire Wire Line
	3850 6700 4000 6700
Wire Wire Line
	3800 5750 2800 5750
Wire Wire Line
	3800 5850 2800 5850
Wire Wire Line
	1750 7450 1750 7250
Wire Wire Line
	700  4850 900  4850
Wire Wire Line
	3650 4750 3700 4750
Wire Wire Line
	3650 5250 3700 5250
Wire Wire Line
	3700 4850 3550 4850
Wire Wire Line
	3550 4850 3550 3850
Wire Wire Line
	3550 3850 900  3850
Wire Wire Line
	900  3850 900  4650
Wire Wire Line
	2800 4950 3700 4950
Wire Wire Line
	2800 5050 3700 5050
Wire Wire Line
	2800 5150 3700 5150
Wire Wire Line
	2900 6850 2800 6850
Wire Wire Line
	2800 6750 2900 6750
Wire Wire Line
	2800 6950 2900 6950
Wire Wire Line
	2800 4650 2900 4650
Wire Wire Line
	850  5050 900  5050
Wire Wire Line
	2800 4750 2900 4750
Wire Wire Line
	2800 5350 2900 5350
Wire Wire Line
	2800 5450 2900 5450
Wire Wire Line
	2800 5550 2900 5550
Wire Wire Line
	2800 5650 2900 5650
Wire Wire Line
	2800 6250 2900 6250
Wire Wire Line
	2800 6350 2900 6350
Wire Wire Line
	2800 6450 2900 6450
Wire Wire Line
	2800 6550 2900 6550
Wire Wire Line
	2800 6650 2900 6650
Wire Wire Line
	1650 4250 1650 4300
Connection ~ 1650 4300
Wire Wire Line
	1650 3950 1650 3850
Connection ~ 1650 3850
Wire Wire Line
	10450 4800 10450 4750
Wire Wire Line
	10450 4400 10450 4450
Wire Wire Line
	10450 6000 10450 6050
Wire Wire Line
	10450 5650 10450 5700
Wire Wire Line
	9550 4800 9600 4800
Wire Wire Line
	9900 5050 9900 5000
Wire Wire Line
	9550 6050 9600 6050
Wire Wire Line
	9900 6300 9900 6250
Wire Wire Line
	9900 4550 9900 4600
Wire Wire Line
	9900 5800 9900 5850
Wire Wire Line
	9550 4800 9550 4750
Wire Wire Line
	9550 4400 9550 4450
Wire Wire Line
	9550 6000 9550 6050
Wire Wire Line
	9550 5650 9550 5700
Wire Wire Line
	8650 4800 8700 4800
Wire Wire Line
	9000 5050 9000 5000
Wire Wire Line
	8650 6050 8700 6050
Wire Wire Line
	9000 6300 9000 6250
Wire Wire Line
	9000 4550 9000 4600
Wire Wire Line
	9000 5800 9000 5850
Wire Wire Line
	8650 4800 8650 4750
Wire Wire Line
	8650 4400 8650 4450
Wire Wire Line
	8650 6000 8650 6050
Wire Wire Line
	8650 5650 8650 5700
Wire Wire Line
	7800 4800 7850 4800
Wire Wire Line
	8150 5050 8150 5000
Wire Wire Line
	7800 6050 7850 6050
Wire Wire Line
	8150 6300 8150 6250
Wire Wire Line
	8150 4550 8150 4600
Wire Wire Line
	8150 5800 8150 5850
Wire Wire Line
	7800 4800 7800 4750
Wire Wire Line
	7800 4400 7800 4450
Wire Wire Line
	7800 6000 7800 6050
Wire Wire Line
	7800 5650 7800 5700
Wire Wire Line
	6900 4800 6950 4800
Wire Wire Line
	7250 5050 7250 5000
Wire Wire Line
	6900 6050 6950 6050
Wire Wire Line
	7250 6300 7250 6250
Wire Wire Line
	7250 4550 7250 4600
Wire Wire Line
	7250 5800 7250 5850
Wire Wire Line
	6900 4800 6900 4750
Wire Wire Line
	6900 4400 6900 4450
Wire Wire Line
	6900 6000 6900 6050
Wire Wire Line
	6900 5650 6900 5700
Wire Wire Line
	7950 1550 7950 1600
Wire Wire Line
	7950 1200 7950 1250
Wire Wire Line
	9650 1600 9650 1550
Wire Wire Line
	9650 1200 9650 1250
Wire Wire Line
	6250 1550 6250 1600
Wire Wire Line
	6250 1600 6300 1600
Wire Wire Line
	6250 1200 6250 1250
Wire Wire Line
	4550 1550 4550 1600
Wire Wire Line
	4550 1600 4600 1600
Wire Wire Line
	4550 1200 4550 1250
Wire Wire Line
	1850 4350 1850 4000
Wire Wire Line
	1850 4000 2300 4000
Wire Wire Line
	2850 4100 2850 4000
Wire Wire Line
	2850 4000 2600 4000
Wire Wire Line
	3900 7050 3900 6900
Wire Wire Line
	3900 6900 4000 6900
Wire Wire Line
	1750 4300 1750 4350
Connection ~ 1750 4300
Wire Wire Line
	1350 4300 1850 4300
Connection ~ 1850 4300
Wire Wire Line
	1850 7250 1850 7350
Wire Wire Line
	1850 7350 1750 7350
Connection ~ 1750 7350
Text HLabel 800  5550 0    60   Input ~ 0
catL
Wire Wire Line
	800  5350 900  5350
Text HLabel 800  5350 0    60   Input ~ 0
catR
Wire Wire Line
	800  5550 900  5550
$Comp
L MMBT3904 Q19
U 1 1 5C48A905
P 5900 4900
F 0 "Q19" H 6100 4975 50  0000 L CNN
F 1 "MMBTA42" H 6100 4900 50  0000 L CNN
F 2 "TO_SOT_Packages_SMD:SOT-23" H 6100 4825 50  0001 L CIN
F 3 "" H 5900 4900 50  0000 L CNN
	1    5900 4900
	1    0    0    -1  
$EndComp
$Comp
L R R28
U 1 1 5C48A90B
P 5650 4700
F 0 "R28" V 5730 4700 50  0000 C CNN
F 1 "10k" V 5650 4700 50  0000 C CNN
F 2 "Resistors_SMD:R_0603" V 5580 4700 50  0001 C CNN
F 3 "" H 5650 4700 50  0000 C CNN
	1    5650 4700
	1    0    0    -1  
$EndComp
$Comp
L GND #PWR020
U 1 1 5C48A911
P 6000 5150
F 0 "#PWR020" H 6000 4900 50  0001 C CNN
F 1 "GND" H 6000 5000 50  0000 C CNN
F 2 "" H 6000 5150 50  0000 C CNN
F 3 "" H 6000 5150 50  0000 C CNN
	1    6000 5150
	1    0    0    -1  
$EndComp
Text HLabel 6000 4650 1    60   Input ~ 0
CathodeL
Text HLabel 5650 4500 1    60   Input ~ 0
catL
Wire Wire Line
	5650 4900 5700 4900
Wire Wire Line
	6000 5150 6000 5100
Wire Wire Line
	6000 4650 6000 4700
Wire Wire Line
	5650 4900 5650 4850
Wire Wire Line
	5650 4500 5650 4550
$Comp
L MMBT3904 Q20
U 1 1 5C48AC5B
P 6050 6200
F 0 "Q20" H 6250 6275 50  0000 L CNN
F 1 "MMBTA42" H 6250 6200 50  0000 L CNN
F 2 "TO_SOT_Packages_SMD:SOT-23" H 6250 6125 50  0001 L CIN
F 3 "" H 6050 6200 50  0000 L CNN
	1    6050 6200
	1    0    0    -1  
$EndComp
$Comp
L R R29
U 1 1 5C48AC61
P 5800 6000
F 0 "R29" V 5880 6000 50  0000 C CNN
F 1 "10k" V 5800 6000 50  0000 C CNN
F 2 "Resistors_SMD:R_0603" V 5730 6000 50  0001 C CNN
F 3 "" H 5800 6000 50  0000 C CNN
	1    5800 6000
	1    0    0    -1  
$EndComp
$Comp
L GND #PWR021
U 1 1 5C48AC67
P 6150 6450
F 0 "#PWR021" H 6150 6200 50  0001 C CNN
F 1 "GND" H 6150 6300 50  0000 C CNN
F 2 "" H 6150 6450 50  0000 C CNN
F 3 "" H 6150 6450 50  0000 C CNN
	1    6150 6450
	1    0    0    -1  
$EndComp
Text HLabel 6150 5950 1    60   Input ~ 0
CathodeR
Text HLabel 5800 5800 1    60   Input ~ 0
catR
Wire Wire Line
	5800 6200 5850 6200
Wire Wire Line
	6150 6450 6150 6400
Wire Wire Line
	6150 5950 6150 6000
Wire Wire Line
	5800 6200 5800 6150
Wire Wire Line
	5800 5800 5800 5850
Text HLabel 5800 2000 1    60   Input ~ 0
CathodeR
Text HLabel 7500 2000 1    60   Input ~ 0
CathodeR
Text HLabel 9200 2000 1    60   Input ~ 0
CathodeR
Text HLabel 10900 2000 1    60   Input ~ 0
CathodeR
Wire Wire Line
	10900 2000 10900 2150
Wire Wire Line
	9200 2000 9200 2150
Wire Wire Line
	7500 2000 7500 2150
Wire Wire Line
	5800 2000 5800 2150
Text HLabel 4800 2100 0    60   Input ~ 0
CathodeL
Text HLabel 6500 2100 0    60   Input ~ 0
CathodeL
Text HLabel 8200 2100 0    60   Input ~ 0
CathodeL
Text HLabel 9900 2100 0    60   Input ~ 0
CathodeL
Wire Wire Line
	9900 2100 10000 2100
Wire Wire Line
	10000 2100 10000 2150
Wire Wire Line
	8200 2100 8300 2100
Wire Wire Line
	8300 2100 8300 2150
Wire Wire Line
	6500 2100 6600 2100
Wire Wire Line
	6600 2100 6600 2150
Wire Wire Line
	4800 2100 4900 2100
Wire Wire Line
	4900 2100 4900 2150
Wire Wire Line
	3800 6400 3800 6300
Wire Wire Line
	700  4850 700  4700
Wire Wire Line
	3650 4750 3650 4500
Wire Wire Line
	1350 4300 1350 4150
$Comp
L +3.3V #PWR022
U 1 1 5C8CFF91
P 3650 4500
F 0 "#PWR022" H 3650 4350 50  0001 C CNN
F 1 "+3.3V" H 3650 4640 50  0000 C CNN
F 2 "" H 3650 4500 50  0000 C CNN
F 3 "" H 3650 4500 50  0000 C CNN
	1    3650 4500
	1    0    0    -1  
$EndComp
$Comp
L +3.3V #PWR023
U 1 1 5C8D0017
P 3800 6300
F 0 "#PWR023" H 3800 6150 50  0001 C CNN
F 1 "+3.3V" H 3800 6440 50  0000 C CNN
F 2 "" H 3800 6300 50  0000 C CNN
F 3 "" H 3800 6300 50  0000 C CNN
	1    3800 6300
	1    0    0    -1  
$EndComp
$Comp
L +3.3V #PWR024
U 1 1 5C8D009D
P 1350 4150
F 0 "#PWR024" H 1350 4000 50  0001 C CNN
F 1 "+3.3V" H 1350 4290 50  0000 C CNN
F 2 "" H 1350 4150 50  0000 C CNN
F 3 "" H 1350 4150 50  0000 C CNN
	1    1350 4150
	1    0    0    -1  
$EndComp
$Comp
L +3.3V #PWR025
U 1 1 5C8D0123
P 700 4700
F 0 "#PWR025" H 700 4550 50  0001 C CNN
F 1 "+3.3V" H 700 4840 50  0000 C CNN
F 2 "" H 700 4700 50  0000 C CNN
F 3 "" H 700 4700 50  0000 C CNN
	1    700  4700
	1    0    0    -1  
$EndComp
$EndSCHEMATC
